{"frames": {

"addition.png":
{
	"frame": {"x":0,"y":0,"w":180,"h":179},
	"rotated": false,
	"trimmed": false,
	"spriteSourceSize": {"x":0,"y":0,"w":180,"h":179},
	"sourceSize": {"w":180,"h":179},
	"pivot": {"x":0.5,"y":0.5}
},
"double.png":
{
	"frame": {"x":0,"y":179,"w":180,"h":179},
	"rotated": false,
	"trimmed": false,
	"spriteSourceSize": {"x":0,"y":0,"w":180,"h":179},
	"sourceSize": {"w":180,"h":179},
	"pivot": {"x":0.5,"y":0.5}
},
"search.png":
{
	"frame": {"x":0,"y":358,"w":180,"h":180},
	"rotated": false,
	"trimmed": false,
	"spriteSourceSize": {"x":0,"y":0,"w":180,"h":180},
	"sourceSize": {"w":180,"h":180},
	"pivot": {"x":0.5,"y":0.5}
},
"secret.png":
{
	"frame": {"x":0,"y":538,"w":180,"h":180},
	"rotated": false,
	"trimmed": false,
	"spriteSourceSize": {"x":0,"y":0,"w":180,"h":180},
	"sourceSize": {"w":180,"h":180},
	"pivot": {"x":0.5,"y":0.5}
}},
"meta": {
	"app": "http://www.codeandweb.com/texturepacker",
	"version": "1.0",
	"image": "textureActs.png",
	"format": "RGBA8888",
	"size": {"w":180,"h":718},
	"scale": "1",
	"smartupdate": "$TexturePacker:SmartUpdate:cc00bbb853b186f99e4b49e8ba66c48f:3456591e67a90e02f0068f511db36bb0:c81029e649ef6a11df94c01b0efdee32$"
}
}
